{
    "name": "SDL2",
    "rm-configure": true,
    "config-opts": ["--disable-static"],
    "cleanup": [
        "/bin",
        "/share/man",
        "/share/aclocal",
        "/include",
        "/lib/pkgconfig",
        "/lib/*.la",
        "/lib/*.a"
    ],
    "sources": [
        {
            "type": "archive",
            "url": "https://www.libsdl.org/release/SDL2-2.0.14.tar.gz",
            "sha256": "d8215b571a581be1332d2106f8036fcb03d12a70bae01e20f424976d275432bc"
        }
    ]
}